Introduction to R for Applied Epidemiology
…
```r
surv %>% 
  group_by(district)
```

No perceptible change to the dataset *until* another {dplyr} function is applied.  

--

If printed, the `Groups:` are listed above the data.

```
## # A tibble: 663 x 27
## # Groups:   district [10]
##    case_id date_onset gender   age age_unit hospital    wt_kg ht_cm fever chills cough aches vomit  temp   bmi district_res admin3pcod district_det case_def date_report
##    <chr>   <date>     <chr>  <dbl> <chr>    <chr>       <int> <int> <chr> <chr>  <chr> <chr> <chr> <dbl> <dbl> <chr>        <chr>      <chr>        <chr>    <date>     
##  1 86340d  2014-10-30 female     1 years    Port Hospi~    18    29 yes   no     yes   no    no     39.4 214.  Mountain Ru~ SL040102   Mountain Ru~ Confirm~ 2014-10-31 
##  2 92d002  2014-08-16 female    16 years    <NA>           59   133 yes   no     yes   no    yes    39.3  33.4 Mountain Ru~ SL040102   Mountain Ru~ Confirm~ 2014-08-20 
##  3 544bd1  2014-08-29 female    10 years    <NA>           39   106 yes   no     yes   no    yes    39.3  34.7 East II      SL040204   East II      Confirm~ 2014-08-30 
##  4 6056ba  2014-10-20 female     0 years    <NA>           NA    24 yes   yes    yes   no    yes    38.6  NA   West III     SL040208   West III     Confirm~ 2014-10-21 
##  5 eb5aeb  2014-10-28 female     8 years    Port Hospi~    34   104 yes   no     yes   no    yes    38.2  31.4 West III     SL040208   West III     Confirm~ 2014-11-01 
##  6 e64e04  2014-10-06 female     7 years    <NA>           32    91 no    no     yes   yes   yes    36.5  38.6 Mountain Ru~ SL040102   Mountain Ru~ Confirm~ 2014-10-10 
##  7 5a65bb  2014-09-21 male       4 years    Port Hospi~    41    74 yes   yes    yes   no    yes    39.1  74.9 Mountain Ru~ SL040102   Mountain Ru~ Confirm~ 2014-09-22 
##  8 2ae019  2014-05-06 male      37 years    Other          81   167 yes   no     yes   no    no     39.5  29.0 West III     SL040208   West III     Confirm~ 2014-05-11 
##  9 7ca4c0  2014-09-29 male      11 years    Port Hospi~    56   163 yes   no     yes   no    no     38.9  21.1 West III     SL040208   West III     Confirm~ 2014-09-30 
## 10 699d82  2014-11-27 male      27 years    Port Hospi~    76   178 yes   yes    yes   no    no     39.4  24.0 Mountain Ru~ SL040102   Mountain Ru~ Confirm~ 2014-11-28 
## # ... with 653 more rows, and 7 more variables: week_onset <date>, week_report <date>, diff <drtn>, age_years <dbl>, age_cat <fct>, moved <lgl>, district <chr>
```
…
On data that are grouped, you can `arrange` *within groups*:  

--

No sorting in effect  

```r
surv %>% 
  group_by(hospital) %>% 
  arrange()
```

```
## # A tibble: 663 x 27
## # Groups:   hospital [6]
##    case_id date_onset gender   age age_unit hospital    wt_kg ht_cm fever chills cough aches vomit  temp   bmi district_res admin3pcod district_det case_def date_report
##    <chr>   <date>     <chr>  <dbl> <chr>    <chr>       <int> <int> <chr> <chr>  <chr> <chr> <chr> <dbl> <dbl> <chr>        <chr>      <chr>        <chr>    <date>     
##  1 86340d  2014-10-30 female     1 years    Port Hospi~    18    29 yes   no     yes   no    no     39.4 214.  Mountain Ru~ SL040102   Mountain Ru~ Confirm~ 2014-10-31 
##  2 92d002  2014-08-16 female    16 years    <NA>           59   133 yes   no     yes   no    yes    39.3  33.4 Mountain Ru~ SL040102   Mountain Ru~ Confirm~ 2014-08-20 
##  3 544bd1  2014-08-29 female    10 years    <NA>           39   106 yes   no     yes   no    yes    39.3  34.7 East II      SL040204   East II      Confirm~ 2014-08-30 
##  4 6056ba  2014-10-20 female     0 years    <NA>           NA    24 yes   yes    yes   no    yes    38.6  NA   West III     SL040208   West III     Confirm~ 2014-10-21 
##  5 eb5aeb  2014-10-28 female     8 years    Port Hospi~    34   104 yes   no     yes   no    yes    38.2  31.4 West III     SL040208   West III     Confirm~ 2014-11-01 
##  6 e64e04  2014-10-06 female     7 years    <NA>           32    91 no    no     yes   yes   yes    36.5  38.6 Mountain Ru~ SL040102   Mountain Ru~ Confirm~ 2014-10-10 
##  7 5a65bb  2014-09-21 male       4 years    Port Hospi~    41    74 yes   yes    yes   no    yes    39.1  74.9 Mountain Ru~ SL040102   Mountain Ru~ Confirm~ 2014-09-22 
##  8 2ae019  2014-05-06 male      37 years    Other          81   167 yes   no     yes   no    no     39.5  29.0 West III     SL040208   West III     Confirm~ 2014-05-11 
##  9 7ca4c0  2014-09-29 male      11 years    Port Hospi~    56   163 yes   no     yes   no    no     38.9  21.1 West III     SL040208   West III     Confirm~ 2014-09-30 
## 10 699d82  2014-11-27 male      27 years    Port Hospi~    76   178 yes   yes    yes   no    no     39.4  24.0 Mountain Ru~ SL040102   Mountain Ru~ Confirm~ 2014-11-28 
## # ... with 653 more rows, and 7 more variables: week_onset <date>, week_report <date>, diff <drtn>, age_years <dbl>, age_cat <fct>, moved <lgl>, district <chr>
```
…
---
# `arrange()`  

On data that are grouped, you can `arrange` *within groups*:  

Sorting by `date_onset` (ascending)  

```r
surv %>% 
  group_by(hospital) %>% 
  arrange(date_onset, .by_group = TRUE)
```

```
## # A tibble: 663 x 27
## # Groups:   hospital [6]
##    case_id   date_onset gender   age age_unit hospital  wt_kg ht_cm fever chills cough aches vomit  temp   bmi district_res admin3pcod district_det case_def date_report
##    <chr>     <date>     <chr>  <dbl> <chr>    <chr>     <int> <int> <chr> <chr>  <chr> <chr> <chr> <dbl> <dbl> <chr>        <chr>      <chr>        <chr>    <date>     
##  1 62638     2014-07-25 male      13 years    Central ~    61   125 no    no     yes   no    yes    37.5  39.0 West III     SL040208   West III     Confirm~ 2014-07-27 
##  2 ae4a36    2014-07-25 female     7 years    Central ~    32    87 yes   no     no    yes   no     38.7  42.3 East I       SL040203   East I       Confirm~ 2014-07-30 
##  3 5b1d5e    2014-08-06 female    22 years    Central ~    65   151 yes   no     yes   no    yes    38.4  28.5 Central I    SL040201   Central I    Confirm~ 2014-08-09 
##  4 9.20E+130 2014-08-10 female    12 years    Central ~    51   125 <NA>  <NA>   <NA>  <NA>  <NA>   36.6  32.6 West II      SL040207   West II      Confirm~ 2014-08-12 
##  5 f13395    2014-08-13 female     7 years    Central ~    43    96 yes   no     no    no    no     39.9  46.7 Mountain Ru~ SL040102   Mountain Ru~ Confirm~ 2014-08-17 
##  6 b016e0    2014-08-14 male      45 years    Central ~    97   217 yes   no     yes   no    no     38.4  20.6 West II      SL040207   West II      Confirm~ 2014-08-18 
##  7 7d25a6    2014-08-16 <NA>      27 years    Central ~    67   157 no    no     yes   no    yes    37.9  27.2 Central I    SL040201   Central I    Confirm~ 2014-08-21 
##  8 0afd15    2014-08-27 male      17 years    Central ~    60   165 yes   no     yes   no    yes    39.1  22.0 Central I    SL040201   Central I    Confirm~ 2014-08-28 
##  9 5a7acc    2014-09-01 female    13 years    Central ~    63   148 no    yes    yes   yes   yes    36.2  28.8 West II      SL040207   West II      Confirm~ 2014-09-12 
## 10 bf302f    2014-09-08 male      14 years    Central ~    64   156 yes   no     yes   no    yes    39    26.3 West II      SL040207   West II      Confirm~ 2014-09-18 
## # ... with 653 more rows, and 7 more variables: week_onset <date>, week_report <date>, diff <drtn>, age_years <dbl>, age_cat <fct>, moved <lgl>, district <chr>
```
---
# `arrange()`  

On data that are grouped, you can `arrange` *within groups*:  

Sorting by `date_onset` (*descending*)  

```r
surv %>% 
  group_by(hospital) %>% 
  arrange(desc(date_onset), .by_group = TRUE)
```

```
## # A tibble: 663 x 27
## # Groups:   hospital [6]
##    case_id date_onset gender   age age_unit hospital    wt_kg ht_cm fever chills cough aches vomit  temp   bmi district_res admin3pcod district_det case_def date_report
##    <chr>   <date>     <chr>  <dbl> <chr>    <chr>       <int> <int> <chr> <chr>  <chr> <chr> <chr> <dbl> <dbl> <chr>        <chr>      <chr>        <chr>    <date>     
##  1 d05a15  2014-11-26 female     8 years    Central Ho~    33   118 yes   yes    yes   no    no     38.5  23.7 Central II   SL040202   Central II   Confirm~ 2014-11-27 
##  2 0d8a0a  2014-11-24 male      27 years    Central Ho~    60   152 yes   no     no    no    yes    40    26.0 West II      SL040207   West II      Confirm~ 2014-11-30 
##  3 a4585b  2014-11-23 male      23 years    Central Ho~    65   162 yes   no     yes   no    no     39.6  24.8 Central I    SL040201   Central I    Confirm~ 2014-11-24 
##  4 e5e4e7  2014-11-22 female    12 years    Central Ho~    53   133 yes   no     yes   no    yes    38.7  30.0 East II      SL040204   East II      Confirm~ 2014-11-23 
##  5 f52668  2014-11-18 male      12 years    Central Ho~    64   154 yes   no     yes   no    no     38.8  27.0 Mountain Ru~ SL040102   Mountain Ru~ Confirm~ 2014-11-18 
##  6 6f8014  2014-11-17 male      16 years    Central Ho~    63   141 yes   no     yes   no    no     38.7  31.7 West II      SL040207   West II      Confirm~ 2014-11-19 
##  7 e88337  2014-11-16 male      41 years    Central Ho~    87   211 yes   yes    yes   no    yes    39.4  19.5 Mountain Ru~ SL040102   Mountain Ru~ Confirm~ 2014-11-17 
##  8 da8bdb  2014-11-14 female    12 years    Central Ho~    51   140 yes   yes    yes   no    yes    38.7  26.0 Mountain Ru~ SL040102   Mountain Ru~ Confirm~ 2014-11-16 
##  9 bc475c  2014-11-08 female     4 years    Central Ho~    35    63 yes   no     yes   no    yes    39.4  88.2 West II      SL040207   West II      Confirm~ 2014-11-01 
## 10 9c5424  2014-11-07 male       1 years    Central Ho~    17    50 yes   no     yes   no    yes    38.8  68   West II      SL040207   West II      Confirm~ 2014-11-10 
## # ... with 653 more rows, and 7 more variables: week_onset <date>, week_report <date>, diff <drtn>, age_years <dbl>, age_cat <fct>, moved <lgl>, district <chr>
```
…
